
{
  "data": {
  "id": "4446678908",
  "number": 4435217,
  "operationDate": "2017-11-29",
  "codeCheck": 4498,
  "dueDate": "2017-11-29",
  "concept": "Pago de artículos de papelería",
  "operationNumber": "7464028",
  "receiver": {
    "type": "PHONE",
    "value": "5512756780",
    "name": "Adriana Romo"
  },
  "sentMoney": {
    "amount": "1500",
    "currency": "MXN"
  },
  "digitalCheckType": "UNRESERVED_AMOUNT_CHECK",
  "digitalCheckStatus": "VALID"
  }
}
