{
  "data": [
    {
      "id": "1hhn22-wepaq44g",
      "localAmount": {
        "amount": 588.75,
        "currency": "EUR"
      },
      "moneyFlow": "EXPENSE",
      "concept": "Purchase in Amazon Europe for 588.75€",
      "operationDate": "2016-02-28T16:41:41.090Z",
      "status": "SETTLED"
    },
    {
      "id": "1hhn22-wepaq44g",
      "localAmount": {
        "amount": 19.34,
        "currency": "EUR"
      },
      "moneyFlow": "EXPENSE",
      "concept": "Purchase from PCCOMPONENTES",
      "operationDate": "2016-01-21T16:41:41.090Z",
      "status": "SETTLED",
      "exchangeRate": {
        "date": "2016-01-21T16:41:41.090Z",
        "values": {
          "factor": {
            "value": 3.4
          },
          "type": "SALE"
        }
      }
    },
    {
      "id": "55rmsdm-wepaq44g",
      "localAmount": {
        "amount": 37.56,
        "currency": "EUR"
      },
      "originAmount": {
        "amount": 40,
        "currency": "USD"
      },
      "moneyFlow": "EXPENSE",
      "concept": "Purchase in Amazon Europe for 300.30€",
      "operationDate": "2016-02-28T16:41:41.090Z",
      "status": "SETTLED",
      "exchangeRate": {
        "date": "2016-01-21T16:41:41.090Z",
        "values": {
          "factor": {
            "value": 3.4
          },
          "type": "SALE"
        }
      }
    }
  ]
}
