{
  "data": [
    {
      "accountId": "1234",
      "number": "ES90 0182 1642 0302 0153 0412",
      "numberType": "IBAN",
      "accountFamily": {
        "id": "CREDIT",
        "name": "Credit account."
      },
      "accountType": {
        "id": "12-280",
        "name": "Tarjeta Garantizada"
      },
      "title": {
        "id": "12-280",
        "name": "Tarjeta Garantizada"
      },
      "alias": "Work account",
      "openingDate": "2010-02-02",
      "currencies": [
        {
          "currency": "EUR",
          "isMajor": false
        },
        {
          "currency": "USD",
          "isMajor": true
        }
      ],
      "availableBalance": {
        "currentBalances": [
          {
            "amount": 500,
            "currency": "EUR"
          },
          {
            "amount": 556.05,
            "currency": "USD"
          }
        ],
        "postedBalances": [
          {
            "amount": 550,
            "currency": "EUR"
          },
          {
            "amount": 611.66,
            "currency": "USD"
          }
        ],
        "pendingBalances": [
          {
            "amount": -50,
            "currency": "EUR"
          },
          {
            "amount": -55.61,
            "currency": "USD"
          }
        ]
      },
      "status": {
        "id": "BLOCKED",
        "name": "Account blocked",
        "reason": "SEIZED"
      }
    },
    {
      "accountId": "1235",
      "number": "ES90 0182 1642 0302 0153 7555",
      "numberType": "IBAN",
      "accountFamily": {
        "id": "COMMON",
        "name": "Common account."
      },
      "accountType": {
        "id": "14-260",
        "name": "Cuenta Express Bancomer"
      },
      "title": {
        "id": "14-260",
        "name": "Cuenta Express Bancomer"
      },
      "alias": "Joint account with my father",
      "openingDate": "2011-09-01",
      "currencies": [
        {
          "currency": "EUR",
          "isMajor": false
        },
        {
          "currency": "USD",
          "isMajor": true
        }
      ],
      "availableBalance": {
        "currentBalances": [
          {
            "amount": 500,
            "currency": "EUR"
          },
          {
            "amount": 556.05,
            "currency": "USD"
          }
        ],
        "postedBalances": [
          {
            "amount": 550,
            "currency": "EUR"
          },
          {
            "amount": 611.66,
            "currency": "USD"
          }
        ],
        "pendingBalances": [
          {
            "amount": -50,
            "currency": "EUR"
          },
          {
            "amount": -55.61,
            "currency": "USD"
          }
        ]
      },
      "status": {
        "id": "ACTIVATED",
        "name": "Activated account"
      }
    }
  ],
  "pagination": {
    "links": {
      "first": "https://www.bbvaapis.com/accounts/v0/accounts?orderBy=openingDate",
      "last": "https://www.bbvaapis.com/accounts/v0/accounts?orderBy=openingDate&paginationKey=gdfw254sf",
      "previous": "https://www.bbvaapis.com/accounts/v0/accounts?orderBy=openingDate&paginationKey=dwer342sf",
      "next": "https://www.bbvaapis.com/accounts/v0/accounts?orderBy=openingDate&paginationKey=qazx687sf"
    },
    "page": 1,
    "totalPages": 3,
    "totalElements": 6,
    "pageSize": 2
  }
}
